{
    "account": "000000000000",
    "region": "us-east-1",
    "lambdas": {
        "hello": { "handler": "hello.handler", "vars": { "NAME": "Larry" }},
        "badbasic": { "src": "./lambdas", "handler": "badbasic.handler" },
        "invoke-lambda": { "src": "./lambdas", "handler": "invoke-lambda.handler" },
        "reader": { "src": "./lambdas", "handler": "reader.lambda_handler", "vars": { "TABLE_NAME": "GameScores" } },
        "badpython": { "src": "./lambdas", "handler": "badpython.handler" }
    },
    "apis": {
        "example": {
            "dev": {
                "/hello": { "GET": "hello" },
                "/bad": { "GET": "badbasic" },
                "/reader": { "GET": "reader" },
                "/badpython": { "GET": "badpython" },
                "/invoke": { "GET": "invoke-lambda" }
            }
        }
    },
    "tables": {
        "GameScores": {
            "hashKey": "UserId",
            "rangeKey": "GameTitle",
            "attributes": { "UserId": "S", "GameTitle": "S" }
        }
    },
    "queues": {
    }
}